.HOME {
  
  font-size: 13px;

  font-family: "Georgia";
  
  color: rgb(255, 255, 255);

  line-height: 1.2;
  
  text-align: left;
 
  position: absolute;
  
  left: 466px;
 
  top: 74.671px;
  
  z-index: 167;

}

//Button around HOME
.Path {
   
	background-color: rgb(118, 195, 143);
  
	position: absolute;
  
	left: 446px;
  
	top: 48px;
  
	width: 78px;
  
	height: 35px;
  
	z-index: 166;
	
}

// Style Demo
.STYLE_DEMO {
  
	font-size: 13px;
  
	font-family: "Georgia";
  
	color: rgb(255, 255, 255);
  
	line-height: 1.2;
  text-align: left;
  
	position: absolute;
  
	left: 546px;
  
	top: 74.78px;
  
	z-index: 165;

}
